%YAML 1.1
%TAG !u! tag:unity3d.com,2011:
--- !u!1001 &1700715296274872870
PrefabInstance:
  m_ObjectHideFlags: 0
  serializedVersion: 2
  m_Modification:
    m_TransformParent: {fileID: 0}
    m_Modifications:
    - target: {fileID: 2218568292700577822, guid: b35943c0445415146876bbbfb6907f81,
        type: 3}
      propertyPath: m_LocalPosition.x
      value: 0
      objectReference: {fileID: 0}
    - target: {fileID: 2218568292700577822, guid: b35943c0445415146876bbbfb6907f81,
        type: 3}
      propertyPath: m_LocalPosition.y
      value: 0
      objectReference: {fileID: 0}
    - target: {fileID: 2218568292700577822, guid: b35943c0445415146876bbbfb6907f81,
        type: 3}
      propertyPath: m_LocalPosition.z
      value: 0
      objectReference: {fileID: 0}
    - target: {fileID: 2218568292700577822, guid: b35943c0445415146876bbbfb6907f81,
        type: 3}
      propertyPath: m_LocalRotation.x
      value: 0
      objectReference: {fileID: 0}
    - target: {fileID: 2218568292700577822, guid: b35943c0445415146876bbbfb6907f81,
        type: 3}
      propertyPath: m_LocalRotation.y
      value: 0
      objectReference: {fileID: 0}
    - target: {fileID: 2218568292700577822, guid: b35943c0445415146876bbbfb6907f81,
        type: 3}
      propertyPath: m_LocalRotation.z
      value: 0
      objectReference: {fileID: 0}
    - target: {fileID: 2218568292700577822, guid: b35943c0445415146876bbbfb6907f81,
        type: 3}
      propertyPath: m_LocalRotation.w
      value: 1
      objectReference: {fileID: 0}
    - target: {fileID: 2218568292700577822, guid: b35943c0445415146876bbbfb6907f81,
        type: 3}
      propertyPath: m_RootOrder
      value: 0
      objectReference: {fileID: 0}
    - target: {fileID: 2218568292700577822, guid: b35943c0445415146876bbbfb6907f81,
        type: 3}
      propertyPath: m_LocalEulerAnglesHint.x
      value: 0
      objectReference: {fileID: 0}
    - target: {fileID: 2218568292700577822, guid: b35943c0445415146876bbbfb6907f81,
        type: 3}
      propertyPath: m_LocalEulerAnglesHint.y
      value: 0
      objectReference: {fileID: 0}
    - target: {fileID: 2218568292700577822, guid: b35943c0445415146876bbbfb6907f81,
        type: 3}
      propertyPath: m_LocalEulerAnglesHint.z
      value: 0
      objectReference: {fileID: 0}
    - target: {fileID: 5882112992185335762, guid: b35943c0445415146876bbbfb6907f81,
        type: 3}
      propertyPath: m_Name
      value: Boid Moth
      objectReference: {fileID: 0}
    m_RemovedComponents: []
  m_SourcePrefab: {fileID: 100100000, guid: b35943c0445415146876bbbfb6907f81, type: 3}
--- !u!4 &672117811049765432 stripped
Transform:
  m_CorrespondingSourceObject: {fileID: 2218568292700577822, guid: b35943c0445415146876bbbfb6907f81,
    type: 3}
  m_PrefabInstance: {fileID: 1700715296274872870}
  m_PrefabAsset: {fileID: 0}
--- !u!1001 &2155185420571039435
PrefabInstance:
  m_ObjectHideFlags: 0
  serializedVersion: 2
  m_Modification:
    m_TransformParent: {fileID: 672117811049765432}
    m_Modifications:
    - target: {fileID: 100000, guid: 18ff4633094dd7b4bae45a9d42a69bd1, type: 3}
      propertyPath: m_Layer
      value: 8
      objectReference: {fileID: 0}
    - target: {fileID: 100002, guid: 18ff4633094dd7b4bae45a9d42a69bd1, type: 3}
      propertyPath: m_Layer
      value: 8
      objectReference: {fileID: 0}
    - target: {fileID: 100004, guid: 18ff4633094dd7b4bae45a9d42a69bd1, type: 3}
      propertyPath: m_Layer
      value: 8
      objectReference: {fileID: 0}
    - target: {fileID: 100006, guid: 18ff4633094dd7b4bae45a9d42a69bd1, type: 3}
      propertyPath: m_Layer
      value: 8
      objectReference: {fileID: 0}
    - target: {fileID: 100008, guid: 18ff4633094dd7b4bae45a9d42a69bd1, type: 3}
      propertyPath: m_Layer
      value: 8
      objectReference: {fileID: 0}
    - target: {fileID: 100010, guid: 18ff4633094dd7b4bae45a9d42a69bd1, type: 3}
      propertyPath: m_Layer
      value: 8
      objectReference: {fileID: 0}
    - target: {fileID: 100012, guid: 18ff4633094dd7b4bae45a9d42a69bd1, type: 3}
      propertyPath: m_Layer
      value: 8
      objectReference: {fileID: 0}
    - target: {fileID: 100014, guid: 18ff4633094dd7b4bae45a9d42a69bd1, type: 3}
      propertyPath: m_Layer
      value: 8
      objectReference: {fileID: 0}
    - target: {fileID: 100016, guid: 18ff4633094dd7b4bae45a9d42a69bd1, type: 3}
      propertyPath: m_Layer
      value: 8
      objectReference: {fileID: 0}
    - target: {fileID: 100018, guid: 18ff4633094dd7b4bae45a9d42a69bd1, type: 3}
      propertyPath: m_Layer
      value: 8
      objectReference: {fileID: 0}
    - target: {fileID: 100020, guid: 18ff4633094dd7b4bae45a9d42a69bd1, type: 3}
      propertyPath: m_Layer
      value: 8
      objectReference: {fileID: 0}
    - target: {fileID: 100022, guid: 18ff4633094dd7b4bae45a9d42a69bd1, type: 3}
      propertyPath: m_Layer
      value: 8
      objectReference: {fileID: 0}
    - target: {fileID: 100024, guid: 18ff4633094dd7b4bae45a9d42a69bd1, type: 3}
      propertyPath: m_Layer
      value: 8
      objectReference: {fileID: 0}
    - target: {fileID: 100026, guid: 18ff4633094dd7b4bae45a9d42a69bd1, type: 3}
      propertyPath: m_Layer
      value: 8
      objectReference: {fileID: 0}
    - target: {fileID: 100028, guid: 18ff4633094dd7b4bae45a9d42a69bd1, type: 3}
      propertyPath: m_Layer
      value: 8
      objectReference: {fileID: 0}
    - target: {fileID: 100030, guid: 18ff4633094dd7b4bae45a9d42a69bd1, type: 3}
      propertyPath: m_Layer
      value: 8
      objectReference: {fileID: 0}
    - target: {fileID: 100032, guid: 18ff4633094dd7b4bae45a9d42a69bd1, type: 3}
      propertyPath: m_Layer
      value: 8
      objectReference: {fileID: 0}
    - target: {fileID: 100034, guid: 18ff4633094dd7b4bae45a9d42a69bd1, type: 3}
      propertyPath: m_Layer
      value: 8
      objectReference: {fileID: 0}
    - target: {fileID: 100036, guid: 18ff4633094dd7b4bae45a9d42a69bd1, type: 3}
      propertyPath: m_Layer
      value: 8
      objectReference: {fileID: 0}
    - target: {fileID: 100038, guid: 18ff4633094dd7b4bae45a9d42a69bd1, type: 3}
      propertyPath: m_Name
      value: emperor moth
      objectReference: {fileID: 0}
    - target: {fileID: 100038, guid: 18ff4633094dd7b4bae45a9d42a69bd1, type: 3}
      propertyPath: m_Layer
      value: 8
      objectReference: {fileID: 0}
    - target: {fileID: 100040, guid: 18ff4633094dd7b4bae45a9d42a69bd1, type: 3}
      propertyPath: m_Layer
      value: 8
      objectReference: {fileID: 0}
    - target: {fileID: 100042, guid: 18ff4633094dd7b4bae45a9d42a69bd1, type: 3}
      propertyPath: m_Layer
      value: 8
      objectReference: {fileID: 0}
    - target: {fileID: 100044, guid: 18ff4633094dd7b4bae45a9d42a69bd1, type: 3}
      propertyPath: m_Layer
      value: 8
      objectReference: {fileID: 0}
    - target: {fileID: 100046, guid: 18ff4633094dd7b4bae45a9d42a69bd1, type: 3}
      propertyPath: m_Layer
      value: 8
      objectReference: {fileID: 0}
    - target: {fileID: 400038, guid: 18ff4633094dd7b4bae45a9d42a69bd1, type: 3}
      propertyPath: m_LocalPosition.x
      value: 0
      objectReference: {fileID: 0}
    - target: {fileID: 400038, guid: 18ff4633094dd7b4bae45a9d42a69bd1, type: 3}
      propertyPath: m_LocalPosition.y
      value: 0
      objectReference: {fileID: 0}
    - target: {fileID: 400038, guid: 18ff4633094dd7b4bae45a9d42a69bd1, type: 3}
      propertyPath: m_LocalPosition.z
      value: 0
      objectReference: {fileID: 0}
    - target: {fileID: 400038, guid: 18ff4633094dd7b4bae45a9d42a69bd1, type: 3}
      propertyPath: m_LocalRotation.x
      value: 0
      objectReference: {fileID: 0}
    - target: {fileID: 400038, guid: 18ff4633094dd7b4bae45a9d42a69bd1, type: 3}
      propertyPath: m_LocalRotation.y
      value: 0
      objectReference: {fileID: 0}
    - target: {fileID: 400038, guid: 18ff4633094dd7b4bae45a9d42a69bd1, type: 3}
      propertyPath: m_LocalRotation.z
      value: 0
      objectReference: {fileID: 0}
    - target: {fileID: 400038, guid: 18ff4633094dd7b4bae45a9d42a69bd1, type: 3}
      propertyPath: m_LocalRotation.w
      value: 1
      objectReference: {fileID: 0}
    - target: {fileID: 400038, guid: 18ff4633094dd7b4bae45a9d42a69bd1, type: 3}
      propertyPath: m_RootOrder
      value: 0
      objectReference: {fileID: 0}
    - target: {fileID: 400038, guid: 18ff4633094dd7b4bae45a9d42a69bd1, type: 3}
      propertyPath: m_LocalEulerAnglesHint.x
      value: 0
      objectReference: {fileID: 0}
    - target: {fileID: 400038, guid: 18ff4633094dd7b4bae45a9d42a69bd1, type: 3}
      propertyPath: m_LocalEulerAnglesHint.y
      value: 0
      objectReference: {fileID: 0}
    - target: {fileID: 400038, guid: 18ff4633094dd7b4bae45a9d42a69bd1, type: 3}
      propertyPath: m_LocalEulerAnglesHint.z
      value: 0
      objectReference: {fileID: 0}
    m_RemovedComponents: []
  m_SourcePrefab: {fileID: 100100000, guid: 18ff4633094dd7b4bae45a9d42a69bd1, type: 3}
