%YAML 1.1
%TAG !u! tag:unity3d.com,2011:
--- !u!114 &11400000
MonoBehaviour:
  m_ObjectHideFlags: 0
  m_PrefabParentObject: {fileID: 0}
  m_PrefabInternal: {fileID: 0}
  m_GameObject: {fileID: 0}
  m_Enabled: 1
  m_EditorHideFlags: 0
  m_Script: {fileID: 11500000, guid: 525672d918c136b4c93beeb759a8ad14, type: 3}
  m_Name: Samsung Galaxy A7 (2017)
  m_EditorClassIdentifier: 
  m_Resolution:
    m_Active: 1
    m_Width: 1920
    m_Height: 1080
    m_Scale: 1
    m_Orientation: 1
    m_ResolutionName: Samsung Galaxy A7 (2017)
    m_Category: Devices/Samsung
    m_Platform: Android
    m_PPI: 386
    m_ForcedUnityPPI: 0
    m_DeviceCanvas: {fileID: 0}
    m_Ratio: 16:9
    m_FileName: 
    m_IgnoreOrientation: 0
    m_SafeAreaPortrait:
      serializedVersion: 2
      x: 0
      y: 0
      width: 0
      height: 0
    m_SafeAreaLandscapeLeft:
      serializedVersion: 2
      x: 0
      y: 0
      width: 0
      height: 0
    m_SafeAreaLandscapeRight:
      serializedVersion: 2
      x: 0
      y: 0
      width: 0
      height: 0
