%YAML 1.1
%TAG !u! tag:unity3d.com,2011:
--- !u!1045 &1
EditorBuildSettings:
  m_ObjectHideFlags: 0
  serializedVersion: 2
  m_Scenes:
  - enabled: 1
    path: Assets/Scenes/IntroScene.unity
    guid: 1c47034ffa7cc7144b01299496fee562
  - enabled: 1
    path: Assets/Scenes/SampleScene.unity
    guid: 5aea1a8ba2a04ed4e8d0cb1bbbef4576
  - enabled: 0
    path: Assets/Scenes/SampleScene 1.unity
    guid: c9c62b0c7c81c654da3857fb59dcc965
  m_configObjects: {}
