%YAML 1.1
%TAG !u! tag:unity3d.com,2011:
--- !u!114 &11400000
MonoBehaviour:
  m_ObjectHideFlags: 0
  m_PrefabParentObject: {fileID: 0}
  m_PrefabInternal: {fileID: 0}
  m_GameObject: {fileID: 0}
  m_Enabled: 1
  m_EditorHideFlags: 0
  m_Script: {fileID: 11500000, guid: 525672d918c136b4c93beeb759a8ad14, type: 3}
  m_Name: Apple iPhone 6S
  m_EditorClassIdentifier: 
  m_Resolution:
    m_Active: 1
    m_Width: 1334
    m_Height: 750
    m_Scale: 1
    m_Orientation: 1
    m_ResolutionName: Apple iPhone 6S
    m_Category: Devices/Apple
    m_Platform: iOS
    m_PPI: 326
    m_ForcedUnityPPI: 0
    m_DeviceCanvas: {fileID: 22351862, guid: d894d1e726c463043a0c33e203b8e6c4, type: 2}
    m_Ratio: 667:375
    m_FileName: 
    m_IgnoreOrientation: 0
    m_SafeAreaPortrait:
      serializedVersion: 2
      x: 0
      y: 0
      width: 0
      height: 0
    m_SafeAreaLandscapeLeft:
      serializedVersion: 2
      x: 0
      y: 0
      width: 0
      height: 0
    m_SafeAreaLandscapeRight:
      serializedVersion: 2
      x: 0
      y: 0
      width: 0
      height: 0
