%YAML 1.1
%TAG !u! tag:unity3d.com,2011:
--- !u!114 &11400000
MonoBehaviour:
  m_ObjectHideFlags: 0
  m_PrefabParentObject: {fileID: 0}
  m_PrefabInternal: {fileID: 0}
  m_GameObject: {fileID: 0}
  m_Enabled: 1
  m_EditorHideFlags: 0
  m_Script: {fileID: 11500000, guid: 525672d918c136b4c93beeb759a8ad14, type: 3}
  m_Name: iPad, iPad Mini (9.7 inch)
  m_EditorClassIdentifier: 
  m_Resolution:
    m_Active: 1
    m_Width: 2048
    m_Height: 1536
    m_Scale: 1
    m_Orientation: 0
    m_ResolutionName: 
    m_Category: Custom
    m_PPI: 0
    m_ForcedUnityPPI: 0
    m_DeviceCanvas: {fileID: 0}
    m_Ratio: 
    m_FileName: 
    m_IgnoreOrientation: 0
